…
To download a BFS dataset, add the related url link from the `url_px` column of the downloaded metadata as an argument to the `bfs_get_dataset()` function.

```{r bfs_get_dataset, eval=FALSE}
df_edu <- bfs_get_dataset(meta_en_edu$url_px[3])

print(df_edu)
```

    # A tibble: 7,392 x 5
       studienstufe      geschlecht isced_field                                  jahr  value
       <fct>             <fct>      <fct>                                        <fct> <dbl>
     1 Diploma           Male       Education science                            1997      0
     2 Bachelor          Male       Education science                            1997      0
     3 Master            Male       Education science                            1997      0
     4 Further education Male       Education science                            1997      0
     5 Diploma           Female     Education science                            1997      0
     6 Bachelor          Female     Education science                            1997      0
     7 Master            Female     Education science                            1997      0
     8 Further education Female     Education science                            1997      0
     9 Diploma           Male       Teacher training without subject specialisa… 1997      0
    10 Bachelor          Male       Teacher training without subject specialisa… 1997      0
    # … with 7,382 more rows
…
