…
The function `bfs_get_metadata()` returns a data frame/tibble containing
the titles, publication dates, observation periods, data sources,
website URLs and download URLs of all the [BFS data sets
available](https://www.bfs.admin.ch/bfs/en/home/statistics/catalogues-databases/data.html)
in a given language. You can get the metadata in German (“de”, by
default), French (“fr”), Italian (“it”) or English (“en”). Note that
Italian and English metadata give access to less data sets.

``` r
meta_en <- bfs_get_metadata(language = "en")

meta_en
```

    ## # A tibble: 162 x 6
    ##    title        observation_period  published  source  url_bfs       url_px     
    ##    <chr>        <chr>               <chr>      <chr>   <chr>         <chr>      
    ##  1 Foreign cro~ 1.1.1999-31.3.2021  04.05.2021 Federa~ https://www.~ https://ww~
    ##  2 Retail Trad~ 1.1.2000-31.3.2021  30.04.2021 Federa~ https://www.~ https://ww~
    ##  3 Retail Trad~ 1.1.2000-31.3.2021  30.04.2021 Federa~ https://www.~ https://ww~
    ##  4 Retail Trad~ 2000-2020           30.04.2021 Federa~ https://www.~ https://ww~
    ##  5 New registr~ 1.1.2020-31.3.2020~ 13.04.2021 Federa~ https://www.~ https://ww~
    ##  6 Deaths per ~ 1803-2019           06.04.2021 Federa~ https://www.~ https://ww~
    ##  7 Hotel accom~ 1.1.2005-28.2.2021  06.04.2021 Federa~ https://www.~ https://ww~
    ##  8 Hotel accom~ 1.1.2005-28.2.2021  06.04.2021 Federa~ https://www.~ https://ww~
    ##  9 Hotel accom~ 1.1.2013-28.2.2021  06.04.2021 Federa~ https://www.~ https://ww~
    ## 10 Hotel secto~ 1.1.2005-28.2.2021  06.04.2021 Federa~ https://www.~ https://ww~
    ## # ... with 152 more rows

You can also get the catalog data by language based on the new RSS feed
provided by the Swiss Federal Statistical Office. Note that the number
of datasets available with `bfs_get_catalog()` may differ from the
output of the `bfs_get_metadata()`.

``` r
catalog_en <- bfs_get_catalog(language = "en")

catalog_en
```

    ## # A tibble: 162 x 5
    ##    title            language published           url_bfs           url_px       
    ##    <chr>            <chr>    <dttm>              <chr>             <chr>        
    ##  1 Foreign cross-b~ en       2021-05-04 08:30:00 https://www.bfs.~ https://www.~
    ##  2 Retail Trade Tu~ en       2021-04-30 08:30:00 https://www.bfs.~ https://www.~
    ##  3 Retail Trade Tu~ en       2021-04-30 08:30:00 https://www.bfs.~ https://www.~
    ##  4 Retail Trade Tu~ en       2021-04-30 08:30:00 https://www.bfs.~ https://www.~
    ##  5 New registratio~ en       2021-04-13 08:30:00 https://www.bfs.~ https://www.~
    ##  6 Deaths per mont~ en       2021-04-06 08:30:00 https://www.bfs.~ https://www.~
    ##  7 Hotel accommoda~ en       2021-04-06 08:30:00 https://www.bfs.~ https://www.~
    ##  8 Hotel accommoda~ en       2021-04-06 08:30:00 https://www.bfs.~ https://www.~
    ##  9 Hotel accommoda~ en       2021-04-06 08:30:00 https://www.bfs.~ https://www.~
    ## 10 Hotel sector: S~ en       2021-04-06 08:30:00 https://www.bfs.~ https://www.~
    ## # ... with 152 more rows
…
### Download data set

To download a BFS data set, add the related URL link from the `url_px`
column of the downloaded metadata as an argument to the `bfs_get_data
set()` function. For now, the data can be downloaded only in German.

``` r
df_uni <- bfs_get_dataset(url_px = meta_en_uni$url_px[2])

df_uni
```

    ## # A tibble: 17,220 x 5
    ##    studienstufe                     geschlecht isced_fach           jahr   value
    ##    <fct>                            <fct>      <fct>                <fct>  <dbl>
    ##  1 Lizenziat/Diplom                 Mann       Erziehungswissensch~ 1980/~   545
    ##  2 Bachelor                         Mann       Erziehungswissensch~ 1980/~     0
    ##  3 Master                           Mann       Erziehungswissensch~ 1980/~     0
    ##  4 Doktorat                         Mann       Erziehungswissensch~ 1980/~    93
    ##  5 Weiterbildung, Vertiefung und A~ Mann       Erziehungswissensch~ 1980/~    13
    ##  6 Lizenziat/Diplom                 Frau       Erziehungswissensch~ 1980/~   946
    ##  7 Bachelor                         Frau       Erziehungswissensch~ 1980/~     0
    ##  8 Master                           Frau       Erziehungswissensch~ 1980/~     0
    ##  9 Doktorat                         Frau       Erziehungswissensch~ 1980/~    70
    ## 10 Weiterbildung, Vertiefung und A~ Frau       Erziehungswissensch~ 1980/~    52
    ## # ... with 17,210 more rows
…
