Search and Download Data from the Swiss Federal Statistical Office (BFS) • BFS
…
Usage

library(BFS)

Get the data catalog

To search and download data from the Swiss Federal Statistical Office, you first need to retrieve information about the available public datasets.

You can get the data catalog by language based on their official RSS feed. Unfortunately, it seems that not all data is listed inside the RSS feed. Note also that Italian and English give access to less datasets.

catalog_en <- bfs_get_catalog(language = "en")

catalog_en

## # A tibble: 170 x 5
##    title            language published           url_bfs           url_px       
##    <chr>            <chr>    <chr>               <chr>             <chr>        
##  1 Air emissions a~ en       Air emissions acco~ https://www.bfs.~ https://www.~
##  2 Deaths per mont~ en       Deaths per month a~ https://www.bfs.~ https://www.~
##  3 Divorces and di~ en       Divorces and divor~ https://www.bfs.~ https://www.~
##  4 Energy accounts~ en       Energy accounts of~ https://www.bfs.~ https://www.~
##  5 Environmentally~ en       Environmentally re~ https://www.bfs.~ https://www.~
##  6 Live births per~ en       Live births per mo~ https://www.bfs.~ https://www.~
##  7 Marriages and n~ en       Marriages and nupt~ https://www.bfs.~ https://www.~
##  8 Permanent resid~ en       Permanent resident~ https://www.bfs.~ https://www.~
##  9 New registratio~ en       New registrations ~ https://www.bfs.~ https://www.~
## 10 Hotel accommoda~ en       Hotel accommodatio~ https://www.bfs.~ https://www.~
## # ... with 160 more rows
…
Download a dataset in any language

To download a BFS dataset, add the related URL link from the url_bfs column of the downloaded metadata as an argument to the bfs_get_dataset() function.

df_uni <- bfs_get_dataset(url_bfs = catalog_uni$url_bfs, language = "en")

##   Downloading large query (in 4 batches):
##   |                                                                              |                                                                      |   0%  |                                                                              |==================                                                    |  25%  |                                                                              |===================================                                   |  50%  |                                                                              |====================================================                  |  75%  |                                                                              |======================================================================| 100%

df_uni

## # A tibble: 17,220 x 5
##    Year    `ISCED Field`     Sex   `Level of study`            `University stud~
##    <chr>   <chr>             <chr> <chr>                                   <dbl>
##  1 1980/81 Education science Man   First university degree or~               545
##  2 1980/81 Education science Man   Bachelor                                    0
##  3 1980/81 Education science Man   Master                                      0
##  4 1980/81 Education science Man   Doctorate                                  93
##  5 1980/81 Education science Man   Further education, advance~                13
##  6 1980/81 Education science Woman First university degree or~               946
##  7 1980/81 Education science Woman Bachelor                                    0
##  8 1980/81 Education science Woman Master                                      0
##  9 1980/81 Education science Woman Doctorate                                  70
## 10 1980/81 Education science Woman Further education, advance~                52
## # ... with 17,210 more rows
…
You can use again bfs_get_dataset() but this time with the number_bfs argument.

bfs_get_dataset(number_bfs = "px-x-1502040100_131", language = "en")

A lot of data is not accessible through the API, but is still present in the official BFS website. You can access the RSS tables catalog of the Excel files using the bfs_get_catalog_tables(). Note that only a part of the tables are accessible using the RSS feed.

bfs_get_catalog_tables(language = "en")

## # A tibble: 350 x 5
##    title           language published           url_bfs          url_table      
##    <chr>           <chr>    <chr>               <chr>            <chr>          
##  1 Admissions to ~ en       Admissions to univ~ https://www.bfs~ https://www.bf~
##  2 Admissions to ~ en       Admissions to univ~ https://www.bfs~ https://www.bf~
##  3 Air emission a~ en       Air emission accou~ https://www.bfs~ https://www.bf~
##  4 Air emission a~ en       Air emission accou~ https://www.bfs~ https://www.bf~
##  5 Average age at~ en       Average age at tim~ https://www.bfs~ https://www.bf~
##  6 Average age of~ en       Average age of the~ https://www.bfs~ https://www.bf~
##  7 Energy flow ac~ en       Energy flow accoun~ https://www.bfs~ https://www.bf~
##  8 Energy flow ac~ en       Energy flow accoun~ https://www.bfs~ https://www.bf~
##  9 Environmentall~ en       Environmentally re~ https://www.bfs~ https://www.bf~
## 10 Environmentall~ en       Environmentally re~ https://www.bfs~ https://www.bf~
## # ... with 340 more rows
…
